Code examples
…
# save it!
image_read("https://drive.google.com/uc?export=download&id=1muwNrReMtBJIOZaXKlN_hVGFe-shhi0e") %>%
  image_write("myrobot.png")

# read in robot data
robot_df <- read_csv("https://docs.google.com/spreadsheets/d/e/2PACX-1vTAvomBmRHCu6T3Mewu3yuEHy8eViekI2WXJTOLDxDrldXc-gYEE2LjiWa1CTgXmXRRJFqf5leNn4NW/pub?gid=0&single=true&output=csv")
robot_df

## # A tibble: 283 x 4
##    Title                                       Year imdbID    Type 
##    <chr>                                      <int> <chr>     <chr>
##  1 I, Robot                                    2004 tt0343818 movie
##  2 Robot & Frank                               2012 tt1990314 movie
##  3 Robot Chicken: Star Wars                    2007 tt1020990 movie
##  4 Robot Overlords                             2014 tt2145829 movie
##  5 Robot Jox                                   1989 tt0102800 movie
##  6 Robot Monster                               1953 tt0046248 movie
##  7 Robot Chicken: Star Wars Episode II         2008 tt1334272 movie
##  8 Robot Chicken: Star Wars III                2010 tt1691338 movie
##  9 The Aztec Mummy Against the Humanoid Robot  1958 tt0050717 movie
## 10 Robot Chicken: DC Comics Special            2012 tt2381287 movie
## # ... with 273 more rows

# group data by year and count movies
movies <- robot_df %>%
  group_by(Year) %>%
  summarise(num_movies = n())
movies

## # A tibble: 55 x 2
##     Year num_movies
##    <int>      <int>
##  1  1932          1
##  2  1936          1
##  3  1938          1
##  4  1941          1
##  5  1944          1
##  6  1951          1
##  7  1953          2
##  8  1956          2
##  9  1958          1
## 10  1962          2
## # ... with 45 more rows
…
